<svg xmlns="http://www.w3.org/2000/svg" width="10" height="17" viewBox="0 0 10 17">
    <path fill="none" fill-rule="evenodd" stroke="#181414" stroke-linejoin="round" stroke-width="3" d="M1.852 1.338l6 6.923-6 6.924" opacity=".5"/>
</svg>
